{
    "BGD": {
        "number_facilities": 6,
        "bsci_overall_risk": 23.5,
        "bsci_is_risk_country": true,
        "bsci_actblty_voice": 31.03,
        "bsci_ctrl_corruption": 21.2,
        "bsci_gvnmt_effectiveness": 25.48,
        "bsci_rgltry_quality": 22.12,
        "bsci_rule_law": 30.77,
        "bsci_stabilty_violence": 10.48,
        "epi_overall_risk": 29.56,
        "epi_eco_w60": 41.29,
        "epi_hlt_w40": 11.96,
        "hdi_overall_risk": 61.0,
        "wgi_actblty_voice": 30.05,
        "wgi_stabilty_violence": 10.48,
        "wgi_gvnmt_effectiveness": 22.12,
        "wgi_rgltry_quality": 20.67,
        "wgi_rule_law": 28.37,
        "wgi_ctrl_corruption": 19.23,
        "country_short": "BGD",
        "wgi_overall_risk": 21.82,
        "country_long": "Bangladesh"
    },
    "DEU": {
        "number_facilities": 11,
        "bsci_overall_risk": 90.2,
        "bsci_is_risk_country": false,
        "bsci_actblty_voice": 94.58,
        "bsci_ctrl_corruption": 93.8,
        "bsci_gvnmt_effectiveness": 94.23,
        "bsci_rgltry_quality": 96.15,
        "bsci_rule_law": 91.35,
        "bsci_stabilty_violence": 70.95,
        "epi_overall_risk": 78.37,
        "epi_eco_w60": 71.5,
        "epi_hlt_w40": 88.68,
        "hdi_overall_risk": 94.0,
        "wgi_actblty_voice": 95.57,
        "wgi_stabilty_violence": 66.67,
        "wgi_gvnmt_effectiveness": 94.23,
        "wgi_rgltry_quality": 95.19,
        "wgi_rule_law": 91.35,
        "wgi_ctrl_corruption": 94.23,
        "country_short": "DEU",
        "wgi_overall_risk": 89.54,
        "country_long": "Germany"
    },
    "KOR": {
        "number_facilities": 7,
        "bsci_overall_risk": 72.8,
        "bsci_is_risk_country": false,
        "bsci_actblty_voice": 67.0,
        "bsci_ctrl_corruption": 66.8,
        "bsci_gvnmt_effectiveness": 80.77,
        "bsci_rgltry_quality": 84.13,
        "bsci_rule_law": 86.06,
        "bsci_stabilty_violence": 51.9,
        "epi_overall_risk": 62.3,
        "epi_eco_w60": 54.96,
        "epi_hlt_w40": 73.3,
        "hdi_overall_risk": 90.0,
        "wgi_actblty_voice": 71.43,
        "wgi_stabilty_violence": 58.57,
        "wgi_gvnmt_effectiveness": 82.21,
        "wgi_rgltry_quality": 82.21,
        "wgi_rule_law": 85.58,
        "wgi_ctrl_corruption": 67.79,
        "country_short": "KOR",
        "wgi_overall_risk": 74.63,
        "country_long": "Korea, Republic of"
    },
    "THA": {
        "number_facilities": 8,
        "bsci_overall_risk": 43.2,
        "bsci_is_risk_country": true,
        "bsci_actblty_voice": 20.69,
        "bsci_ctrl_corruption": 40.9,
        "bsci_gvnmt_effectiveness": 66.35,
        "bsci_rgltry_quality": 60.1,
        "bsci_rule_law": 55.29,
        "bsci_stabilty_violence": 15.71,
        "epi_overall_risk": 49.88,
        "epi_eco_w60": 52.33,
        "epi_hlt_w40": 46.21,
        "hdi_overall_risk": 76.0,
        "wgi_actblty_voice": 21.18,
        "wgi_stabilty_violence": 19.05,
        "wgi_gvnmt_effectiveness": 66.83,
        "wgi_rgltry_quality": 59.62,
        "wgi_rule_law": 54.81,
        "wgi_ctrl_corruption": 42.79,
        "country_short": "THA",
        "wgi_overall_risk": 44.05,
        "country_long": "Thailand"
    },
    "USA": {
        "number_facilities": 9,
        "bsci_overall_risk": 84.7,
        "bsci_is_risk_country": false,
        "bsci_actblty_voice": 84.24,
        "bsci_ctrl_corruption": 89.9,
        "bsci_gvnmt_effectiveness": 91.35,
        "bsci_rgltry_quality": 91.83,
        "bsci_rule_law": 92.31,
        "bsci_stabilty_violence": 58.57,
        "epi_overall_risk": 71.19,
        "epi_eco_w60": 56.04,
        "epi_hlt_w40": 93.91,
        "hdi_overall_risk": 92.0,
        "wgi_actblty_voice": 82.27,
        "wgi_stabilty_violence": 59.05,
        "wgi_gvnmt_effectiveness": 92.79,
        "wgi_rgltry_quality": 92.79,
        "wgi_rule_law": 91.83,
        "wgi_ctrl_corruption": 88.94,
        "country_short": "USA",
        "wgi_overall_risk": 84.61,
        "country_long": "United States"
    },
    "VNM": {
        "number_facilities": 9,
        "bsci_overall_risk": 41.4,
        "bsci_is_risk_country": true,
        "bsci_actblty_voice": 9.85,
        "bsci_ctrl_corruption": 41.8,
        "bsci_gvnmt_effectiveness": 52.88,
        "bsci_rgltry_quality": 35.1,
        "bsci_rule_law": 57.21,
        "bsci_stabilty_violence": 51.43,
        "epi_overall_risk": 46.96,
        "epi_eco_w60": 46.86,
        "epi_hlt_w40": 47.12,
        "hdi_overall_risk": 69.0,
        "wgi_actblty_voice": 10.84,
        "wgi_stabilty_violence": 59.52,
        "wgi_gvnmt_effectiveness": 52.88,
        "wgi_rgltry_quality": 36.54,
        "wgi_rule_law": 55.77,
        "wgi_ctrl_corruption": 31.73,
        "country_short": "VNM",
        "wgi_overall_risk": 41.21,
        "country_long": "Viet Nam"
    }
}
