{
  "name": "ACompany",
  "start": "2018-07-06",
  "end": "2019-08-06",
  "platform": "Sentinel-2",
  "product_type": "S2MSI2A",
  "geom": {
    "type": "Feature",
    "properties": { "original_crs": "EPSG:4326" },
    "geometry": {
      "type": "Polygon",
      "coordinates": [
        [
          [771555.3906881803, 6610188.222523236],
          [771555.3906881803, 6612987.708216107],
          [776218.0075600562, 6612987.708216107],
          [776218.0075600562, 6610188.222523236],
          [771555.3906881803, 6610188.222523236]
        ]
      ]
    },
    "crs": "EPSG:3857"
  },
  "mode": "latest_pixel",
  "color": true,
  "bands": ["B02", "B03", "B04"],
  "scale": 10,
  "format": "ZIP",
  "clip_to_geom": false,
  "max_cloud_cover_percentage": 10,
  "delay": true,
  "tag": "f4d3730b-c3fb-4299-99e8-afbbb4a0ed3f/pixels.zip"
}
