{
  "geometry": {
      "type": "Polygon",
      "coordinates": [
          [
              [
                  -1.174872,
                  7.219075
              ],
              [
                  -1.174872,
                  7.224227
              ],
              [
                  -1.165774,
                  7.224227
              ],
              [
                  -1.165774,
                  7.219075
              ],
              [
                  -1.174872,
                  7.219075
              ]
          ]
      ]
  },
  "png": "RGB.png"
}
