[
    {
        "imageBoundaries": [
            [ -340.74646, 41.193123 ],
            [ -340.74646, 41.442726 ],
            [ -340.227356, 41.442726 ],
            [ -340.227356, 41.193123 ],
            [ -340.74646, 41.193123 ]
        ],
        "images": [
            {
                "image": "/static/images/facility1-1.png",
                "start-date": "2019-07-26",
                "end-date": "2019-08-26"
            },
            {
                "image": "/static/images/facility1-2.png",
                "start-date": "2019-06-26",
                "end-date": "2019-07-26"
            },
            {
                "image": "/static/images/facility1-3.png",
                "start-date": "2019-05-26",
                "end-date": "2019-06-26"
            },
            {
                "image": "/static/images/facility1-3.png",
                "start-date": "2019-01-26",
                "end-date": "2019-02-26"
            }
        ],
        "interval": "monthly",
        "facility_id": 543,
        "meta": {
            "platform": "Sentinel-2",
            "product_type": "S2MSI1C",
            "mode": "latest_pixel",
            "format": "PNG",
            "color": true,
            "max_cloud_cover_percentage": 10,
            "delay": true,
            "geom": {
                "type": "Feature",
                "properties": {},
                "geometry": {
                    "type": "Polygon",
                    "coordinates": [
                        [
                            [ -340.74646, 41.193123 ],
                            [ -340.74646, 41.442726 ],
                            [ -340.227356, 41.442726 ],
                            [ -340.227356, 41.193123 ],
                            [ -340.74646, 41.193123 ]
                        ]
                    ]
                },
                "crs": "EPSG:4326"
            }
        }
    }
]
